…
point_hourly <-
  fetch_amgsds(
    times = time_range,
    lats = sites$lat, lons = sites$lon,
    elements = c("TMP", "RH"),
    source = "hourly"
  )

print(point_hourly)
#> # A tibble: 243 × 6
#>    time                  lat   lon site_id   TMP    RH
#>    <dttm>              <dbl> <dbl> <chr>   <dbl> <dbl>
#>  1 2023-12-30 14:00:00  35.7  140. 1        14.6  41.3
#>  2 2023-12-30 15:00:00  35.7  140. 1        13.7  53.7
#>  3 2023-12-30 16:00:00  35.7  140. 1        12.8  58.5
#>  4 2023-12-30 17:00:00  35.7  140. 1        10.1  65.4
#>  5 2023-12-30 18:00:00  35.7  140. 1         9.7  64  
#>  6 2023-12-30 19:00:00  35.7  140. 1         9.7  65.5
#>  7 2023-12-30 20:00:00  35.7  140. 1         8.9  73.6
#>  8 2023-12-30 21:00:00  35.7  140. 1         8.7  80.1
#>  9 2023-12-30 22:00:00  35.7  140. 1         9    78.6
#> 10 2023-12-30 23:00:00  35.7  140. 1         9.2  81.3
#> # ℹ 233 more rows
```
…
``` r

point_scenario <-
  fetch_amgsds(
    times = ymd(c("2070-05-01", "2070-05-10"), tz = "Asia/Tokyo"), 
    lats = sites$lat, lons = sites$lon,
    elements = "TMP_mea",
    source = "scenario",
    model = "CSIRO-Mk3-6-0",
    RCP = "RCP8.5"
  )

print(point_scenario)
#> # A tibble: 30 × 5
#>    time         lat   lon site_id TMP_mea
#>    <date>     <dbl> <dbl> <chr>     <dbl>
#>  1 2070-05-01  35.7  140. 1          20.9
#>  2 2070-05-02  35.7  140. 1          17.5
#>  3 2070-05-03  35.7  140. 1          18.8
#>  4 2070-05-04  35.7  140. 1          20.2
#>  5 2070-05-05  35.7  140. 1          19.0
#>  6 2070-05-06  35.7  140. 1          19.3
#>  7 2070-05-07  35.7  140. 1          19.2
#>  8 2070-05-08  35.7  140. 1          17.0
#>  9 2070-05-09  35.7  140. 1          18.6
#> 10 2070-05-10  35.7  140. 1          22.1
#> # ℹ 20 more rows
```
…
<img src="man/figures/README-plot_area_base-2.png" width="100%" />

現在主流な描画パッケージである`ggplot2`を使うとより細かい設定を行うことができます。
fetchする際に`output = "tibble"`としておくか、arrayに`unfold_array`処理をかけると、`ggplot2`に適したlong形式のデータに整形できます。

``` r
area_daily_rain_long <-
  area_daily_rain %>%
  unfold_array()

print(area_daily_rain_long)
#> # A tibble: 38,660 × 4
#>    time         lat   lon  APCP
#>    <date>     <dbl> <dbl> <dbl>
#>  1 2023-01-10  41.5  140.  7.54
#>  2 2023-01-10  41.5  140.  7.90
#>  3 2023-01-10  41.5  140.  8.07
#>  4 2023-01-10  41.5  140.  8.20
#>  5 2023-01-10  41.5  140.  8.24
#>  6 2023-01-10  41.5  140.  8.37
#>  7 2023-01-10  41.5  140.  8.27
#>  8 2023-01-10  41.5  140.  8.30
#>  9 2023-01-10  41.5  140.  7.93
#> 10 2023-01-10  41.5  140.  7.22
#> # ℹ 38,650 more rows
```
…
unfold_array(area_sado_temps)
#> # A tibble: 1,918 × 5
#>    time         lat   lon TMP_max TMP_min
#>    <date>     <dbl> <dbl>   <dbl>   <dbl>
#>  1 1990-07-15  37.8  138.    25.4    22.6
#>  2 1990-07-15  37.8  138.    25.3    22.5
#>  3 1990-07-15  37.8  138.    25.4    22.5
#>  4 1990-07-15  37.8  138.    25.5    22.5
#>  5 1990-07-15  37.8  138.    25.3    22.5
#>  6 1990-07-15  37.8  138.    25.2    22.3
#>  7 1990-07-15  37.8  138.    25.2    22.3
#>  8 1990-07-15  37.8  138.    25.2    22.2
#>  9 1990-07-15  37.8  138.    25.4    22.3
#> 10 1990-07-15  37.8  138.    25.5    22.4
#> # ℹ 1,908 more rows
…
